0000.002 (0) Opened log file at time: Sun, 10 Apr 2022 14:28:40 +0000 on http://localhost/wordpress
0000.130 (0) UpdraftPlus WordPress backup plugin (https://updraftplus.com): 2.22.11.25 WP: 5.9.3 PHP: 8.0.14 (apache2handler, Windows NT FRIDAY 10.0 build 19044 (Windows 10) AMD64) MySQL: 10.4.22-MariaDB (max packet size=1048576) WPLANG: en_US Server: Apache/2.4.52 (Win64) OpenSSL/1.1.1m PHP/8.0.14 safe_mode: 0 max_execution_time: 900 memory_limit: 512M (used: 82.4M | 10M) multisite: N openssl: OpenSSL 1.1.1l  24 Aug 2021 mcrypt: N LANG:  ZipArchive::addFile: Y
0000.224 (0) Free space on disk containing Updraft's temporary directory: 600423.5 MB
0000.396 (0) Tasks: Backup files: 1 (schedule: unset) Backup DB: 1 (schedule: unset)
0000.464 (0) Semaphore (fd, wp_options) being initialised
0000.737 (0) Requesting semaphore lock (fd) (apparently not via scheduler)
0001.063 (0) Set semaphore last lock (fd) time to 2022-04-10 14:28:41
0001.187 (0) Semaphore lock (fd) complete
0001.709 (0) Backup run: resumption=0, nonce=a12e4c699d73, file_nonce=a12e4c699d73 begun at=1649600920 (2s ago), job type=backup, label=kyren
0002.014 (0) Scheduling a resumption (1) after 300 seconds (1649601222) in case this run gets aborted
0002.297 (0) Checking if we have a zip executable available
0002.493 (0) Creation of backups of directories: beginning
0002.883 (0) Beginning creation of dump of plugins (split every: 400 MB)
0037.839 (0) Total entities for the zip file: 1627 directories, 7990 files (0 skipped as non-modified), 142.3 MB
0038.020 (0) Adding batch to zip file (UpdraftPlus_ZipArchive): over 2.0 seconds have passed since the last write (0 MB, 1 (1) files added so far); re-opening (prior size: 0 KB)
0038.731 (0) Zip: backup_2022-04-10-1958_KYREN_a12e4c699d73-plugins.zip.tmp: 100 files added (on-disk size: 287.8 KB)
0038.968 (0) Zip: backup_2022-04-10-1958_KYREN_a12e4c699d73-plugins.zip.tmp: 200 files added (on-disk size: 287.8 KB)
0039.248 (0) Zip: backup_2022-04-10-1958_KYREN_a12e4c699d73-plugins.zip.tmp: 300 files added (on-disk size: 287.8 KB)
0039.457 (0) Zip: backup_2022-04-10-1958_KYREN_a12e4c699d73-plugins.zip.tmp: 400 files added (on-disk size: 287.8 KB)
0039.704 (0) Zip: backup_2022-04-10-1958_KYREN_a12e4c699d73-plugins.zip.tmp: 500 files added (on-disk size: 287.8 KB)
0040.021 (0) Zip: backup_2022-04-10-1958_KYREN_a12e4c699d73-plugins.zip.tmp: 600 files added (on-disk size: 287.8 KB)
0040.204 (0) Zip: backup_2022-04-10-1958_KYREN_a12e4c699d73-plugins.zip.tmp: 700 files added (on-disk size: 287.8 KB)
0040.416 (0) Zip: backup_2022-04-10-1958_KYREN_a12e4c699d73-plugins.zip.tmp: 800 files added (on-disk size: 287.8 KB)
0040.745 (0) Zip: backup_2022-04-10-1958_KYREN_a12e4c699d73-plugins.zip.tmp: 900 files added (on-disk size: 287.8 KB)
0040.933 (0) Zip: backup_2022-04-10-1958_KYREN_a12e4c699d73-plugins.zip.tmp: 1000 files added (on-disk size: 287.8 KB)
0041.028 (0) Adding batch to zip file (UpdraftPlus_ZipArchive): over 1000 files added on this batch (17.8 MB, 7990 files batched, 1001 (1002) added so far); re-opening (prior size: 287.8 KB)
0082.387 (0) Zip: backup_2022-04-10-1958_KYREN_a12e4c699d73-plugins.zip.tmp: 1100 files added (on-disk size: 4776.8 KB)
0082.710 (0) Zip: backup_2022-04-10-1958_KYREN_a12e4c699d73-plugins.zip.tmp: 1200 files added (on-disk size: 4776.8 KB)
0082.934 (0) Zip: backup_2022-04-10-1958_KYREN_a12e4c699d73-plugins.zip.tmp: 1300 files added (on-disk size: 4776.8 KB)
0083.206 (0) Zip: backup_2022-04-10-1958_KYREN_a12e4c699d73-plugins.zip.tmp: 1400 files added (on-disk size: 4776.8 KB)
0083.441 (0) Zip: backup_2022-04-10-1958_KYREN_a12e4c699d73-plugins.zip.tmp: 1500 files added (on-disk size: 4776.8 KB)
0083.615 (0) Adding batch to zip file (UpdraftPlus_ZipArchive): over 25 MB added on this batch (25 MB, 7990 files batched, 571 (1573) added so far); re-opening (prior size: 4776.8 KB)
0113.443 (0) A useful amount of data was added after this amount of zip processing: 32.1 s (normalised: 32 s, rate: 799 KB/s)
0113.691 (0) Zip: backup_2022-04-10-1958_KYREN_a12e4c699d73-plugins.zip.tmp: 1600 files added (on-disk size: 12117.9 KB)
0113.895 (0) Zip: backup_2022-04-10-1958_KYREN_a12e4c699d73-plugins.zip.tmp: 1700 files added (on-disk size: 12117.9 KB)
0114.140 (0) Zip: backup_2022-04-10-1958_KYREN_a12e4c699d73-plugins.zip.tmp: 1800 files added (on-disk size: 12117.9 KB)
0114.317 (0) Zip: backup_2022-04-10-1958_KYREN_a12e4c699d73-plugins.zip.tmp: 1900 files added (on-disk size: 12117.9 KB)
0114.599 (0) Zip: backup_2022-04-10-1958_KYREN_a12e4c699d73-plugins.zip.tmp: 2000 files added (on-disk size: 12117.9 KB)
0114.984 (0) Zip: backup_2022-04-10-1958_KYREN_a12e4c699d73-plugins.zip.tmp: 2100 files added (on-disk size: 12117.9 KB)
0115.264 (0) Zip: backup_2022-04-10-1958_KYREN_a12e4c699d73-plugins.zip.tmp: 2200 files added (on-disk size: 12117.9 KB)
0115.587 (0) Zip: backup_2022-04-10-1958_KYREN_a12e4c699d73-plugins.zip.tmp: 2300 files added (on-disk size: 12117.9 KB)
0115.918 (0) Zip: backup_2022-04-10-1958_KYREN_a12e4c699d73-plugins.zip.tmp: 2400 files added (on-disk size: 12117.9 KB)
0116.204 (0) Zip: backup_2022-04-10-1958_KYREN_a12e4c699d73-plugins.zip.tmp: 2500 files added (on-disk size: 12117.9 KB)
0116.390 (0) Adding batch to zip file (UpdraftPlus_ZipArchive): over 2.0 seconds have passed since the last write (18.4 MB, 987 (2560) files added so far); re-opening (prior size: 12117.9 KB)
0134.651 (0) Zip: backup_2022-04-10-1958_KYREN_a12e4c699d73-plugins.zip.tmp: 2600 files added (on-disk size: 16092.9 KB)
0135.070 (0) Zip: backup_2022-04-10-1958_KYREN_a12e4c699d73-plugins.zip.tmp: 2700 files added (on-disk size: 16092.9 KB)
0135.316 (0) Zip: backup_2022-04-10-1958_KYREN_a12e4c699d73-plugins.zip.tmp: 2800 files added (on-disk size: 16092.9 KB)
0135.691 (0) Zip: backup_2022-04-10-1958_KYREN_a12e4c699d73-plugins.zip.tmp: 2900 files added (on-disk size: 16092.9 KB)
0136.053 (0) Zip: backup_2022-04-10-1958_KYREN_a12e4c699d73-plugins.zip.tmp: 3000 files added (on-disk size: 16092.9 KB)
0136.342 (0) Zip: backup_2022-04-10-1958_KYREN_a12e4c699d73-plugins.zip.tmp: 3100 files added (on-disk size: 16092.9 KB)
0136.601 (0) Zip: backup_2022-04-10-1958_KYREN_a12e4c699d73-plugins.zip.tmp: 3200 files added (on-disk size: 16092.9 KB)
0136.863 (0) Zip: backup_2022-04-10-1958_KYREN_a12e4c699d73-plugins.zip.tmp: 3300 files added (on-disk size: 16092.9 KB)
0137.116 (0) Zip: backup_2022-04-10-1958_KYREN_a12e4c699d73-plugins.zip.tmp: 3400 files added (on-disk size: 16092.9 KB)
0137.353 (0) Zip: backup_2022-04-10-1958_KYREN_a12e4c699d73-plugins.zip.tmp: 3500 files added (on-disk size: 16092.9 KB)
0137.462 (0) Adding batch to zip file (UpdraftPlus_ZipArchive): over 2.0 seconds have passed since the last write (12.1 MB, 941 (3501) files added so far); re-opening (prior size: 16092.9 KB)
0177.302 (0) Zip: backup_2022-04-10-1958_KYREN_a12e4c699d73-plugins.zip.tmp: 3600 files added (on-disk size: 19020 KB)
0177.474 (0) Zip: backup_2022-04-10-1958_KYREN_a12e4c699d73-plugins.zip.tmp: 3700 files added (on-disk size: 19020 KB)
0177.683 (0) Zip: backup_2022-04-10-1958_KYREN_a12e4c699d73-plugins.zip.tmp: 3800 files added (on-disk size: 19020 KB)
0177.876 (0) Zip: backup_2022-04-10-1958_KYREN_a12e4c699d73-plugins.zip.tmp: 3900 files added (on-disk size: 19020 KB)
0178.072 (0) Zip: backup_2022-04-10-1958_KYREN_a12e4c699d73-plugins.zip.tmp: 4000 files added (on-disk size: 19020 KB)
0178.332 (0) Zip: backup_2022-04-10-1958_KYREN_a12e4c699d73-plugins.zip.tmp: 4100 files added (on-disk size: 19020 KB)
0178.502 (0) Zip: backup_2022-04-10-1958_KYREN_a12e4c699d73-plugins.zip.tmp: 4200 files added (on-disk size: 19020 KB)
0178.716 (0) Zip: backup_2022-04-10-1958_KYREN_a12e4c699d73-plugins.zip.tmp: 4300 files added (on-disk size: 19020 KB)
0178.843 (0) Adding batch to zip file (UpdraftPlus_ZipArchive): over 25 MB added on this batch (25.5 MB, 7990 files batched, 845 (4346) added so far); re-opening (prior size: 19020 KB)
0255.527 (0) A useful amount of data was added after this amount of zip processing: 79.1 s (normalised: 77.5 s, rate: 330.3 KB/s)
0255.890 (0) Performance is good - will increase the amount of data we attempt to batch (time=79.138506889343, normalised_time=77.513150646217, max_time=255.66182613373, data points known=1, old_max_bytes=26214400, new_max_bytes=51877814)
0256.551 (0) Zip: backup_2022-04-10-1958_KYREN_a12e4c699d73-plugins.zip.tmp: 4400 files added (on-disk size: 25565.1 KB)
0256.756 (0) Zip: backup_2022-04-10-1958_KYREN_a12e4c699d73-plugins.zip.tmp: 4500 files added (on-disk size: 25565.1 KB)
0256.915 (0) Zip: backup_2022-04-10-1958_KYREN_a12e4c699d73-plugins.zip.tmp: 4600 files added (on-disk size: 25565.1 KB)
0257.102 (0) Zip: backup_2022-04-10-1958_KYREN_a12e4c699d73-plugins.zip.tmp: 4700 files added (on-disk size: 25565.1 KB)
0257.260 (0) Zip: backup_2022-04-10-1958_KYREN_a12e4c699d73-plugins.zip.tmp: 4800 files added (on-disk size: 25565.1 KB)
0257.480 (0) Zip: backup_2022-04-10-1958_KYREN_a12e4c699d73-plugins.zip.tmp: 4900 files added (on-disk size: 25565.1 KB)
0257.812 (0) Zip: backup_2022-04-10-1958_KYREN_a12e4c699d73-plugins.zip.tmp: 5000 files added (on-disk size: 25565.1 KB)
0258.022 (0) Zip: backup_2022-04-10-1958_KYREN_a12e4c699d73-plugins.zip.tmp: 5100 files added (on-disk size: 25565.1 KB)
0258.176 (0) Zip: backup_2022-04-10-1958_KYREN_a12e4c699d73-plugins.zip.tmp: 5200 files added (on-disk size: 25565.1 KB)
0258.346 (0) Zip: backup_2022-04-10-1958_KYREN_a12e4c699d73-plugins.zip.tmp: 5300 files added (on-disk size: 25565.1 KB)
0258.409 (0) Adding batch to zip file (UpdraftPlus_ZipArchive): over 2.0 seconds have passed since the last write (17.5 MB, 955 (5301) files added so far); re-opening (prior size: 25565.1 KB)
0281.637 (0) The time we have been running (281.4) is approaching the resumption interval (300) - increasing resumption interval to 312
0281.797 (0) The scheduled resumption is within 45 seconds - will reschedule
0282.075 (0) Rescheduling resumption 1: moving to 357 seconds from now (1649601559)
0282.523 (0) To decrease the likelihood of overlaps, increasing resumption interval to: 312 + 45 = 357
0282.870 (0) Zip: backup_2022-04-10-1958_KYREN_a12e4c699d73-plugins.zip.tmp: 5400 files added (on-disk size: 32656.7 KB)
0283.032 (0) Zip: backup_2022-04-10-1958_KYREN_a12e4c699d73-plugins.zip.tmp: 5500 files added (on-disk size: 32656.7 KB)
0283.194 (0) Zip: backup_2022-04-10-1958_KYREN_a12e4c699d73-plugins.zip.tmp: 5600 files added (on-disk size: 32656.7 KB)
0283.426 (0) Zip: backup_2022-04-10-1958_KYREN_a12e4c699d73-plugins.zip.tmp: 5700 files added (on-disk size: 32656.7 KB)
0283.596 (0) Zip: backup_2022-04-10-1958_KYREN_a12e4c699d73-plugins.zip.tmp: 5800 files added (on-disk size: 32656.7 KB)
0283.775 (0) Zip: backup_2022-04-10-1958_KYREN_a12e4c699d73-plugins.zip.tmp: 5900 files added (on-disk size: 32656.7 KB)
0283.995 (0) Zip: backup_2022-04-10-1958_KYREN_a12e4c699d73-plugins.zip.tmp: 6000 files added (on-disk size: 32656.7 KB)
0284.186 (0) Zip: backup_2022-04-10-1958_KYREN_a12e4c699d73-plugins.zip.tmp: 6100 files added (on-disk size: 32656.7 KB)
0284.395 (0) Zip: backup_2022-04-10-1958_KYREN_a12e4c699d73-plugins.zip.tmp: 6200 files added (on-disk size: 32656.7 KB)
0284.553 (0) Zip: backup_2022-04-10-1958_KYREN_a12e4c699d73-plugins.zip.tmp: 6300 files added (on-disk size: 32656.7 KB)
0284.705 (0) Adding batch to zip file (UpdraftPlus_ZipArchive): over 1000 files added on this batch (10.3 MB, 7990 files batched, 1001 (6302) added so far); re-opening (prior size: 32656.7 KB)
0288.887 (0) Zip: backup_2022-04-10-1958_KYREN_a12e4c699d73-plugins.zip.tmp: 6400 files added (on-disk size: 35718 KB)
0289.123 (0) Zip: backup_2022-04-10-1958_KYREN_a12e4c699d73-plugins.zip.tmp: 6500 files added (on-disk size: 35718 KB)
0289.439 (0) Zip: backup_2022-04-10-1958_KYREN_a12e4c699d73-plugins.zip.tmp: 6600 files added (on-disk size: 35718 KB)
0289.730 (0) Zip: backup_2022-04-10-1958_KYREN_a12e4c699d73-plugins.zip.tmp: 6700 files added (on-disk size: 35718 KB)
0290.038 (0) Zip: backup_2022-04-10-1958_KYREN_a12e4c699d73-plugins.zip.tmp: 6800 files added (on-disk size: 35718 KB)
0290.569 (0) Zip: backup_2022-04-10-1958_KYREN_a12e4c699d73-plugins.zip.tmp: 6900 files added (on-disk size: 35718 KB)
0291.389 (0) Adding batch to zip file (UpdraftPlus_ZipArchive): over 2.0 seconds have passed since the last write (3.6 MB, 688 (6990) files added so far); re-opening (prior size: 35718 KB)
0294.615 (0) Zip: backup_2022-04-10-1958_KYREN_a12e4c699d73-plugins.zip.tmp: 7000 files added (on-disk size: 36887.1 KB)
0294.823 (0) Zip: backup_2022-04-10-1958_KYREN_a12e4c699d73-plugins.zip.tmp: 7100 files added (on-disk size: 36887.1 KB)
0295.007 (0) Zip: backup_2022-04-10-1958_KYREN_a12e4c699d73-plugins.zip.tmp: 7200 files added (on-disk size: 36887.1 KB)
0295.166 (0) Zip: backup_2022-04-10-1958_KYREN_a12e4c699d73-plugins.zip.tmp: 7300 files added (on-disk size: 36887.1 KB)
0295.356 (0) Zip: backup_2022-04-10-1958_KYREN_a12e4c699d73-plugins.zip.tmp: 7400 files added (on-disk size: 36887.1 KB)
0295.567 (0) Zip: backup_2022-04-10-1958_KYREN_a12e4c699d73-plugins.zip.tmp: 7500 files added (on-disk size: 36887.1 KB)
0295.736 (0) Zip: backup_2022-04-10-1958_KYREN_a12e4c699d73-plugins.zip.tmp: 7600 files added (on-disk size: 36887.1 KB)
0295.974 (0) Zip: backup_2022-04-10-1958_KYREN_a12e4c699d73-plugins.zip.tmp: 7700 files added (on-disk size: 36887.1 KB)
0296.163 (0) Zip: backup_2022-04-10-1958_KYREN_a12e4c699d73-plugins.zip.tmp: 7800 files added (on-disk size: 36887.1 KB)
0296.345 (0) Zip: backup_2022-04-10-1958_KYREN_a12e4c699d73-plugins.zip.tmp: 7900 files added (on-disk size: 36887.1 KB)
0343.578 (0) The time we have been running (341.6) is approaching the resumption interval (357) - increasing resumption interval to 372
0344.398 (0) Creating zip file manifest (C:\xampp\htdocs\Practice\wordpress/wp-content/updraft/backup_2022-04-10-1958_KYREN_a12e4c699d73-plugins.zip.list-temp.tmp)
0344.779 (0) Successfully created zip file manifest (size: 706000)
0346.643 (0) Created plugins zip (0) - 40633.6 KB in 343.5 s (118.3 KB/s) (sha1: 93b07bcd3803d3f94106bbc0f4a05ff1dbec5236, sha256: d00746b2931b0f813d70de0e9c20054088f4b672a49994bb3d84a322dd222360)
0346.814 (0) Beginning creation of dump of themes (split every: 400 MB)
0353.314 (0) Total entities for the zip file: 363 directories, 1014 files (0 skipped as non-modified), 30.1 MB
0353.337 (0) Adding batch to zip file (UpdraftPlus_ZipArchive): over 2.0 seconds have passed since the last write (0 MB, 1 (1) files added so far); re-opening (prior size: 0 KB)
0353.800 (0) The time we have been running (353.5) is approaching the resumption interval (372) - increasing resumption interval to 384
0354.372 (0) Zip: backup_2022-04-10-1958_KYREN_a12e4c699d73-themes.zip.tmp: 100 files added (on-disk size: 62.7 KB)
0354.579 (0) Zip: backup_2022-04-10-1958_KYREN_a12e4c699d73-themes.zip.tmp: 200 files added (on-disk size: 62.7 KB)
0354.847 (0) Zip: backup_2022-04-10-1958_KYREN_a12e4c699d73-themes.zip.tmp: 300 files added (on-disk size: 62.7 KB)
0355.175 (0) Zip: backup_2022-04-10-1958_KYREN_a12e4c699d73-themes.zip.tmp: 400 files added (on-disk size: 62.7 KB)
0355.467 (0) Zip: backup_2022-04-10-1958_KYREN_a12e4c699d73-themes.zip.tmp: 500 files added (on-disk size: 62.7 KB)
0355.802 (0) Zip: backup_2022-04-10-1958_KYREN_a12e4c699d73-themes.zip.tmp: 600 files added (on-disk size: 62.7 KB)
0355.966 (0) Zip: backup_2022-04-10-1958_KYREN_a12e4c699d73-themes.zip.tmp: 700 files added (on-disk size: 62.7 KB)
0356.202 (0) Zip: backup_2022-04-10-1958_KYREN_a12e4c699d73-themes.zip.tmp: 800 files added (on-disk size: 62.7 KB)
0356.389 (0) Adding batch to zip file (UpdraftPlus_ZipArchive): over 2.0 seconds have passed since the last write (26.1 MB, 880 (881) files added so far); re-opening (prior size: 62.7 KB)
0381.546 (0) The time we have been running (381.4) is approaching the resumption interval (384) - increasing resumption interval to 412
0381.720 (0) Zip: backup_2022-04-10-1958_KYREN_a12e4c699d73-themes.zip.tmp: 900 files added (on-disk size: 9309.7 KB)
0381.948 (0) Zip: backup_2022-04-10-1958_KYREN_a12e4c699d73-themes.zip.tmp: 1000 files added (on-disk size: 9309.7 KB)
0386.697 (0) The time we have been running (386.5) is approaching the resumption interval (412) - increasing resumption interval to 417
0386.940 (0) Creating zip file manifest (C:\xampp\htdocs\Practice\wordpress/wp-content/updraft/backup_2022-04-10-1958_KYREN_a12e4c699d73-themes.zip.list-temp.tmp)
0387.103 (0) Successfully created zip file manifest (size: 82260)
0388.090 (0) Created themes zip (0) - 13226.9 KB in 39.9 s (331.7 KB/s) (sha1: 2558407ef1e411bacd11edc251134b25c7964add, sha256: 468dfd17ed47b985318076a7fab37c0a111f582c07d1f7ed95d7d20aa7983e2f)
0388.308 (0) Exclusion option setting (uploads): backup*,*backups,backwpup*,wp-clone,snapshots
0388.528 (0) Looking for candidates to backup in: C:\xampp\htdocs\Practice\wordpress/wp-content/uploads
0388.691 (0) finding files: 2018: adding to list (1)
0388.864 (0) finding files: 2019: adding to list (2)
0388.980 (0) finding files: 2020: adding to list (3)
0389.085 (0) finding files: 2021: adding to list (4)
0389.190 (0) finding files: 2022: adding to list (5)
0389.295 (0) finding files: astra-sites: adding to list (6)
0389.424 (0) finding files: elementor: adding to list (7)
0389.545 (0) finding files: forminator: adding to list (8)
0389.652 (0) finding files: ultp: adding to list (9)
0389.793 (0) finding files: wpforms: adding to list (10)
0390.049 (0) Beginning creation of dump of uploads (split every: 400 MB)
0390.592 (0) Total entities for the zip file: 21 directories, 106 files (0 skipped as non-modified), 56.3 MB
0390.686 (0) Adding batch to zip file (UpdraftPlus_ZipArchive): over 49.5 MB added on this batch (49.5 MB, 106 files batched, 54 (54) added so far); re-opening (prior size: 0 KB)
0393.673 (0) The time we have been running (393.4) is approaching the resumption interval (417) - increasing resumption interval to 424
0393.936 (0) A useful amount of data was added after this amount of zip processing: 4.5 s (normalised: 4.5 s, rate: 11151.8 KB/s)
0394.179 (0) Performance is good - will increase the amount of data we attempt to batch (time=4.5474870204926, normalised_time=4.5429271760669, max_time=394.07232403755, data points known=1, old_max_bytes=51877814, new_max_bytes=209715200)
0395.308 (0) The time we have been running (394.5) is approaching the resumption interval (424) - increasing resumption interval to 425
0396.202 (0) Zip: backup_2022-04-10-1958_KYREN_a12e4c699d73-uploads.zip.tmp: 100 files added (on-disk size: 49720.3 KB)
0397.977 (0) The time we have been running (397.3) is approaching the resumption interval (425) - increasing resumption interval to 428
0398.212 (0) Creating zip file manifest (C:\xampp\htdocs\Practice\wordpress/wp-content/updraft/backup_2022-04-10-1958_KYREN_a12e4c699d73-uploads.zip.list-temp.tmp)
0398.284 (0) Successfully created zip file manifest (size: 6616)
0400.911 (0) Created uploads zip (0) - 54174 KB in 10.5 s (5136.2 KB/s) (sha1: ee72a4bcd22d8b324829bf53c86bf751d47e6d5a, sha256: dcae7352103621978b5cb20e77cc68898f1464dc3ca3bfd6664172ca19df22ad)
0400.985 (0) No backup of wpcore: excluded by user's options
0401.416 (0) Beginning backup of other directories found in the content directory (index: 0)
0401.499 (0) Exclusion option setting (others): upgrade,cache,updraft,backup*,*backups,mysql.sql,debug.log
0401.604 (0) Looking for candidates to backup in: C:\xampp\htdocs\Practice\wordpress/wp-content
0401.705 (0) finding files: ai1wm-backups: skipping: excluded by options (glob)
0401.813 (0) finding files: aiowps_backups: skipping: excluded by options (glob)
0401.895 (0) finding files: index.php: adding to list (1)
0402.022 (0) finding files: plugins: skipping: this is the plugins directory
0402.105 (0) finding files: themes: skipping: this is the themes directory
0402.226 (0) finding files: updraft: skipping: this is the updraft directory
0402.337 (0) finding files: upgrade: skipping: excluded by options
0402.430 (0) finding files: uploads: skipping: this is the uploads directory
0402.643 (0) Total entities for the zip file: 0 directories, 1 files (0 skipped as non-modified), 0 MB
0403.062 (0) The time we have been running (402.8) is approaching the resumption interval (428) - increasing resumption interval to 433
0403.251 (0) Creating zip file manifest (C:\xampp\htdocs\Practice\wordpress/wp-content/updraft/backup_2022-04-10-1958_KYREN_a12e4c699d73-others.zip.list-temp.tmp)
0403.357 (0) Successfully created zip file manifest (size: 43)
0403.853 (0) Created others zip (0) - 0.1 KB in 1.3 s (0.1 KB/s) (sha1: 6ffb825f8ea91918ea8ab223a85eca4c947b1931, sha256: 547d9a198a462f3f8f589587dac14b58336daf4374f38245cbac99989b703b49)
0403.938 (0) No backup of more: excluded by user's options
0404.440 (0) Saving backup status to database (elements: 8)
0404.788 (0) Beginning creation of database dump (WordPress DB)
0404.880 (0) SQL compatibility mode is: NO_ZERO_IN_DATE,NO_ENGINE_SUBSTITUTION
0406.361 (0) Table wp_options: Total expected rows (via COUNT): 422
0406.430 (0) Table is relatively small; fetch_rows will thus be: 500 (allow_further_reductions=1, is_first_fetch=1, known_bigger_than_table=1)
0406.926 (0) Table wp_options: Rows added in this batch (next record: 4634): 417 (uncompressed bytes in this segment=5474146) in 0.98 seconds
0407.524 (0) The time we have been running (407.2) is approaching the resumption interval (433) - increasing resumption interval to 438
0407.807 (0) Table wp_options: finishing file(s) (2, 543.3 KB)
0408.140 (0) Table wp_users: Total expected rows (via COUNT): 1
0408.323 (0) Table is relatively small; fetch_rows will thus be: 20 (allow_further_reductions=1, is_first_fetch=1, known_bigger_than_table=1)
0408.559 (0) Table wp_users: Rows added in this batch (next record: 1): 1 (uncompressed bytes in this segment=1359) in 0.47 seconds
0409.024 (0) The time we have been running (408.7) is approaching the resumption interval (438) - increasing resumption interval to 439
0409.681 (0) The time we have been running (409.3) is approaching the resumption interval (439) - increasing resumption interval to 440
0409.865 (0) Table wp_users: finishing file(s) (2, 0.6 KB)
0410.269 (0) Table wp_usermeta: Total expected rows (via COUNT): 30
0410.497 (0) Table is relatively small; fetch_rows will thus be: 50 (allow_further_reductions=1, is_first_fetch=1, known_bigger_than_table=1)
0410.686 (0) Table wp_usermeta: Rows added in this batch (next record: 31): 30 (uncompressed bytes in this segment=2743) in 0.58 seconds
0411.144 (0) The time we have been running (410.8) is approaching the resumption interval (440) - increasing resumption interval to 441
0411.762 (0) The time we have been running (411.4) is approaching the resumption interval (441) - increasing resumption interval to 442
0411.928 (0) Table wp_usermeta: finishing file(s) (2, 1.4 KB)
0412.323 (0) Table wp_commentmeta: Total expected rows (via COUNT): 0
0412.580 (0) Table wp_commentmeta: Rows added in this batch (next record: -1): 0 (uncompressed bytes in this segment=684) in 0.37 seconds
0413.119 (0) The time we have been running (412.9) is approaching the resumption interval (442) - increasing resumption interval to 443
0413.450 (0) The time we have been running (413.3) is approaching the resumption interval (443) - increasing resumption interval to 444
0413.568 (0) Table wp_commentmeta: finishing file(s) (2, 0.4 KB)
0413.975 (0) Table wp_comments: Total expected rows (via COUNT): 0
0414.246 (0) Table wp_comments: Rows added in this batch (next record: -1): 0 (uncompressed bytes in this segment=1678) in 0.52 seconds
0414.466 (0) The time we have been running (414.3) is approaching the resumption interval (444) - increasing resumption interval to 445
0414.686 (0) Table wp_comments: finishing file(s) (2, 0.5 KB)
0414.928 (0) Table wp_links: Total expected rows (via COUNT): 0
0414.982 (0) Table wp_links: Rows added in this batch (next record: -1): 0 (uncompressed bytes in this segment=1266) in 0.17 seconds
0415.474 (0) The time we have been running (415) is approaching the resumption interval (445) - increasing resumption interval to 446
0415.879 (0) Table wp_links: finishing file(s) (2, 0.5 KB)
0416.318 (0) Table wp_postmeta: Total expected rows (approximate): 2444
0417.313 (0) Table wp_postmeta: Rows added in this batch (next record: 3582): 2566 (uncompressed bytes in this segment=5028967) in 1.19 seconds
0417.679 (0) The time we have been running (417.4) is approaching the resumption interval (446) - increasing resumption interval to 448
0418.332 (0) The time we have been running (418.1) is approaching the resumption interval (448) - increasing resumption interval to 449
0418.578 (0) Table wp_postmeta: finishing file(s) (2, 443.2 KB)
0419.119 (0) Table wp_posts: Total expected rows (via COUNT): 365
0419.288 (0) Table is relatively small; fetch_rows will thus be: 500 (allow_further_reductions=1, is_first_fetch=1, known_bigger_than_table=1)
0419.630 (0) Table wp_posts: Rows added in this batch (next record: 965): 365 (uncompressed bytes in this segment=1029936) in 0.80 seconds
0420.475 (0) The time we have been running (420.2) is approaching the resumption interval (449) - increasing resumption interval to 451
0420.712 (0) Table wp_posts: finishing file(s) (2, 52 KB)
0420.993 (0) Table wp_term_relationships: Total expected rows (approximate): 19
0421.502 (0) Table wp_term_relationships: Rows added in this batch (next record: 100000): 19 (uncompressed bytes in this segment=944) in 0.57 seconds
0421.876 (0) The time we have been running (421.6) is approaching the resumption interval (451) - increasing resumption interval to 452
0422.436 (0) The time we have been running (422) is approaching the resumption interval (452) - increasing resumption interval to 453
0422.579 (0) Table wp_term_relationships: finishing file(s) (2, 0.4 KB)
0422.957 (0) Table wp_term_taxonomy: Total expected rows (via COUNT): 9
0423.375 (0) Table is relatively small; fetch_rows will thus be: 20 (allow_further_reductions=1, is_first_fetch=1, known_bigger_than_table=1)
0423.534 (0) Table wp_term_taxonomy: Rows added in this batch (next record: 10): 9 (uncompressed bytes in this segment=1184) in 0.79 seconds
0423.957 (0) The time we have been running (423.7) is approaching the resumption interval (453) - increasing resumption interval to 454
0424.907 (0) The time we have been running (424.3) is approaching the resumption interval (454) - increasing resumption interval to 455
0425.112 (0) Table wp_term_taxonomy: finishing file(s) (2, 0.5 KB)
0425.496 (0) Table wp_termmeta: Total expected rows (via COUNT): 5
0425.590 (0) Table is relatively small; fetch_rows will thus be: 20 (allow_further_reductions=1, is_first_fetch=1, known_bigger_than_table=1)
0425.746 (0) Table wp_termmeta: Rows added in this batch (next record: 5): 5 (uncompressed bytes in this segment=927) in 0.45 seconds
0426.350 (0) The time we have been running (426) is approaching the resumption interval (455) - increasing resumption interval to 457
0426.751 (0) Table wp_termmeta: finishing file(s) (2, 0.4 KB)
0427.080 (0) Table wp_terms: Total expected rows (via COUNT): 9
0427.217 (0) Table is relatively small; fetch_rows will thus be: 20 (allow_further_reductions=1, is_first_fetch=1, known_bigger_than_table=1)
0427.343 (0) Table wp_terms: Rows added in this batch (next record: 10): 9 (uncompressed bytes in this segment=964) in 0.36 seconds
0427.808 (0) The time we have been running (427.4) is approaching the resumption interval (457) - increasing resumption interval to 458
0428.236 (0) The time we have been running (428) is approaching the resumption interval (458) - increasing resumption interval to 459
0428.401 (0) Table wp_terms: finishing file(s) (2, 0.5 KB)
0428.942 (0) Table wp_actionscheduler_actions: Total expected rows (via COUNT): 28
0429.003 (0) Table is relatively small; fetch_rows will thus be: 50 (allow_further_reductions=1, is_first_fetch=1, known_bigger_than_table=1)
0429.284 (0) Table wp_actionscheduler_actions: Rows added in this batch (next record: 250): 28 (uncompressed bytes in this segment=11192) in 0.69 seconds
0429.742 (0) The time we have been running (429.5) is approaching the resumption interval (459) - increasing resumption interval to 460
0430.233 (0) The time we have been running (430) is approaching the resumption interval (460) - increasing resumption interval to 461
0430.444 (0) Table wp_actionscheduler_actions: finishing file(s) (2, 1.8 KB)
0430.693 (0) Table wp_actionscheduler_claims: Total expected rows (via COUNT): 0
0430.907 (0) Table wp_actionscheduler_claims: Rows added in this batch (next record: -1): 0 (uncompressed bytes in this segment=630) in 0.27 seconds
0431.592 (0) The time we have been running (431.1) is approaching the resumption interval (461) - increasing resumption interval to 462
0432.119 (0) Table wp_actionscheduler_claims: finishing file(s) (2, 0.4 KB)
0432.647 (0) Table wp_actionscheduler_groups: Total expected rows (via COUNT): 3
0432.707 (0) Table is relatively small; fetch_rows will thus be: 20 (allow_further_reductions=1, is_first_fetch=1, known_bigger_than_table=1)
0432.946 (0) Table wp_actionscheduler_groups: Rows added in this batch (next record: 3): 3 (uncompressed bytes in this segment=714) in 0.40 seconds
0433.797 (0) The time we have been running (433.1) is approaching the resumption interval (462) - increasing resumption interval to 464
0434.108 (0) Table wp_actionscheduler_groups: finishing file(s) (2, 0.4 KB)
0434.481 (0) Table wp_actionscheduler_logs: Total expected rows (via COUNT): 80
0434.616 (0) Table is relatively small; fetch_rows will thus be: 100 (allow_further_reductions=1, is_first_fetch=1, known_bigger_than_table=1)
0434.952 (0) Table wp_actionscheduler_logs: Rows added in this batch (next record: 617): 80 (uncompressed bytes in this segment=7649) in 0.56 seconds
0435.390 (0) The time we have been running (435.1) is approaching the resumption interval (464) - increasing resumption interval to 466
0435.994 (0) Table wp_actionscheduler_logs: finishing file(s) (2, 1.4 KB)
0436.423 (0) Table wp_aioseo_cache: Total expected rows (via COUNT): 0
0436.634 (0) Table wp_aioseo_cache: Rows added in this batch (next record: -1): 0 (uncompressed bytes in this segment=752) in 0.49 seconds
0437.250 (0) The time we have been running (436.8) is approaching the resumption interval (466) - increasing resumption interval to 467
0437.960 (0) The time we have been running (437.5) is approaching the resumption interval (467) - increasing resumption interval to 468
0438.215 (0) Table wp_aioseo_cache: finishing file(s) (2, 0.4 KB)
0438.748 (0) Table wp_aioseo_notifications: Total expected rows (via COUNT): 0
0438.869 (0) Table wp_aioseo_notifications: Rows added in this batch (next record: -1): 0 (uncompressed bytes in this segment=1612) in 0.46 seconds
0439.857 (0) The time we have been running (439.1) is approaching the resumption interval (468) - increasing resumption interval to 470
0440.277 (0) The time we have been running (440.1) is approaching the resumption interval (470) - increasing resumption interval to 471
0440.420 (0) Table wp_aioseo_notifications: finishing file(s) (2, 0.5 KB)
0440.840 (0) Table wp_aioseo_posts: Total expected rows (via COUNT): 30
0441.030 (0) Table is relatively small; fetch_rows will thus be: 50 (allow_further_reductions=1, is_first_fetch=1, known_bigger_than_table=1)
0441.405 (0) Table wp_aioseo_posts: Rows added in this batch (next record: 30): 30 (uncompressed bytes in this segment=85059) in 0.83 seconds
0442.013 (0) The time we have been running (441.6) is approaching the resumption interval (471) - increasing resumption interval to 472
0442.624 (0) The time we have been running (442.3) is approaching the resumption interval (472) - increasing resumption interval to 473
0442.865 (0) Table wp_aioseo_posts: finishing file(s) (2, 4.4 KB)
0443.441 (0) Table wp_aiowps_debug_log: Total expected rows (via COUNT): 0
0443.644 (0) Table wp_aiowps_debug_log: Rows added in this batch (next record: -1): 0 (uncompressed bytes in this segment=700) in 0.44 seconds
0444.073 (0) The time we have been running (443.7) is approaching the resumption interval (473) - increasing resumption interval to 474
0444.760 (0) The time we have been running (444.3) is approaching the resumption interval (474) - increasing resumption interval to 475
0444.905 (0) Table wp_aiowps_debug_log: finishing file(s) (2, 0.4 KB)
0445.517 (0) Table wp_aiowps_events: Total expected rows (via COUNT): 0
0445.799 (0) Table wp_aiowps_events: Rows added in this batch (next record: -1): 0 (uncompressed bytes in this segment=1000) in 0.52 seconds
0446.468 (0) The time we have been running (446.2) is approaching the resumption interval (475) - increasing resumption interval to 477
0446.901 (0) Table wp_aiowps_events: finishing file(s) (2, 0.4 KB)
0447.282 (0) Table wp_aiowps_failed_logins: Total expected rows (via COUNT): 0
0447.543 (0) Table wp_aiowps_failed_logins: Rows added in this batch (next record: -1): 0 (uncompressed bytes in this segment=712) in 0.29 seconds
0447.916 (0) The time we have been running (447.6) is approaching the resumption interval (477) - increasing resumption interval to 478
0448.769 (0) The time we have been running (448.4) is approaching the resumption interval (478) - increasing resumption interval to 479
0448.966 (0) Table wp_aiowps_failed_logins: finishing file(s) (2, 0.4 KB)
0449.475 (0) Table wp_aiowps_global_meta: Total expected rows (via COUNT): 0
0449.777 (0) Table wp_aiowps_global_meta: Rows added in this batch (next record: -1): 0 (uncompressed bytes in this segment=1148) in 0.62 seconds
0450.667 (0) The time we have been running (450.2) is approaching the resumption interval (479) - increasing resumption interval to 481
0451.446 (0) The time we have been running (451.1) is approaching the resumption interval (481) - increasing resumption interval to 482
0451.666 (0) Table wp_aiowps_global_meta: finishing file(s) (2, 0.4 KB)
0452.416 (0) Table wp_aiowps_login_activity: Total expected rows (via COUNT): 4
0452.584 (0) Table is relatively small; fetch_rows will thus be: 20 (allow_further_reductions=1, is_first_fetch=1, known_bigger_than_table=1)
0452.797 (0) Table wp_aiowps_login_activity: Rows added in this batch (next record: 4): 4 (uncompressed bytes in this segment=1310) in 0.61 seconds
0453.349 (0) The time we have been running (452.9) is approaching the resumption interval (482) - increasing resumption interval to 483
0454.043 (0) The time we have been running (453.5) is approaching the resumption interval (483) - increasing resumption interval to 484
0454.267 (0) Table wp_aiowps_login_activity: finishing file(s) (2, 0.5 KB)
0454.726 (0) Table wp_aiowps_login_lockdown: Total expected rows (via COUNT): 0
0455.200 (0) Table wp_aiowps_login_lockdown: Rows added in this batch (next record: -1): 0 (uncompressed bytes in this segment=932) in 0.72 seconds
0455.844 (0) The time we have been running (455.4) is approaching the resumption interval (484) - increasing resumption interval to 486
0456.344 (0) The time we have been running (456.1) is approaching the resumption interval (486) - increasing resumption interval to 487
0456.595 (0) Table wp_aiowps_login_lockdown: finishing file(s) (2, 0.4 KB)
0457.007 (0) Table wp_aiowps_permanent_block: Total expected rows (via COUNT): 0
0457.111 (0) Table wp_aiowps_permanent_block: Rows added in this batch (next record: -1): 0 (uncompressed bytes in this segment=815) in 0.26 seconds
0457.639 (0) The time we have been running (457.3) is approaching the resumption interval (487) - increasing resumption interval to 488
0457.917 (0) Table wp_aiowps_permanent_block: finishing file(s) (2, 0.4 KB)
0458.332 (0) Table wp_e_submissions: Total expected rows (via COUNT): 0
0458.604 (0) Table wp_e_submissions: Rows added in this batch (next record: -1): 0 (uncompressed bytes in this segment=2245) in 0.48 seconds
0459.707 (0) The time we have been running (458.8) is approaching the resumption interval (488) - increasing resumption interval to 489
0460.173 (0) The time we have been running (459.9) is approaching the resumption interval (489) - increasing resumption interval to 490
0460.349 (0) Table wp_e_submissions: finishing file(s) (2, 0.7 KB)
0460.752 (0) Table wp_e_submissions_actions_log: Total expected rows (via COUNT): 0
0461.098 (0) Table wp_e_submissions_actions_log: Rows added in this batch (next record: -1): 0 (uncompressed bytes in this segment=1244) in 0.54 seconds
0461.617 (0) The time we have been running (461.3) is approaching the resumption interval (490) - increasing resumption interval to 492
0461.949 (0) Table wp_e_submissions_actions_log: finishing file(s) (2, 0.5 KB)
0462.482 (0) Table wp_e_submissions_values: Total expected rows (via COUNT): 0
0462.578 (0) Table wp_e_submissions_values: Rows added in this batch (next record: -1): 0 (uncompressed bytes in this segment=723) in 0.53 seconds
0463.126 (0) The time we have been running (462.8) is approaching the resumption interval (492) - increasing resumption interval to 493
0463.397 (0) The time we have been running (463.2) is approaching the resumption interval (493) - increasing resumption interval to 494
0463.624 (0) Table wp_e_submissions_values: finishing file(s) (2, 0.4 KB)
0463.999 (0) Table wp_ff_scheduled_actions: Total expected rows (via COUNT): 0
0464.083 (0) Table wp_ff_scheduled_actions: Rows added in this batch (next record: -1): 0 (uncompressed bytes in this segment=1068) in 0.30 seconds
0464.487 (0) The time we have been running (464.2) is approaching the resumption interval (494) - increasing resumption interval to 495
0464.879 (0) Table wp_ff_scheduled_actions: finishing file(s) (2, 0.4 KB)
0465.440 (0) Table wp_fluentform_entry_details: Total expected rows (via COUNT): 20
0465.623 (0) Table is relatively small; fetch_rows will thus be: 20 (allow_further_reductions=1, is_first_fetch=1, known_bigger_than_table=1)
0465.753 (0) Table wp_fluentform_entry_details: Rows added in this batch (next record: 20): 20 (uncompressed bytes in this segment=1743) in 0.51 seconds
0466.587 (0) The time we have been running (466.1) is approaching the resumption interval (495) - increasing resumption interval to 497
0466.867 (0) Table wp_fluentform_entry_details: finishing file(s) (2, 0.7 KB)
0467.291 (0) Table wp_fluentform_form_analytics: Total expected rows (via COUNT): 2
0467.509 (0) Table is relatively small; fetch_rows will thus be: 20 (allow_further_reductions=1, is_first_fetch=1, known_bigger_than_table=1)
0467.619 (0) Table wp_fluentform_form_analytics: Rows added in this batch (next record: 2): 2 (uncompressed bytes in this segment=1341) in 0.49 seconds
0467.977 (0) The time we have been running (467.7) is approaching the resumption interval (497) - increasing resumption interval to 498
0468.412 (0) The time we have been running (468.2) is approaching the resumption interval (498) - increasing resumption interval to 499
0468.693 (0) Table wp_fluentform_form_analytics: finishing file(s) (2, 0.6 KB)
0469.142 (0) Table wp_fluentform_form_meta: Total expected rows (via COUNT): 16
0469.286 (0) Table is relatively small; fetch_rows will thus be: 20 (allow_further_reductions=1, is_first_fetch=1, known_bigger_than_table=1)
0469.523 (0) Table wp_fluentform_form_meta: Rows added in this batch (next record: 16): 16 (uncompressed bytes in this segment=7279) in 0.56 seconds
0470.151 (0) The time we have been running (469.8) is approaching the resumption interval (499) - increasing resumption interval to 500
0470.727 (0) The time we have been running (470.4) is approaching the resumption interval (500) - increasing resumption interval to 501
0471.007 (0) Table wp_fluentform_form_meta: finishing file(s) (2, 2 KB)
0471.488 (0) Table wp_fluentform_forms: Total expected rows (via COUNT): 3
0471.581 (0) Table is relatively small; fetch_rows will thus be: 20 (allow_further_reductions=1, is_first_fetch=1, known_bigger_than_table=1)
0471.699 (0) Table wp_fluentform_forms: Rows added in this batch (next record: 3): 3 (uncompressed bytes in this segment=11185) in 0.38 seconds
0472.485 (0) The time we have been running (472) is approaching the resumption interval (501) - increasing resumption interval to 502
0472.990 (0) The time we have been running (472.7) is approaching the resumption interval (502) - increasing resumption interval to 503
0473.253 (0) Table wp_fluentform_forms: finishing file(s) (2, 1.9 KB)
0473.669 (0) Table wp_fluentform_logs: Total expected rows (via COUNT): 10
0473.762 (0) Table is relatively small; fetch_rows will thus be: 20 (allow_further_reductions=1, is_first_fetch=1, known_bigger_than_table=1)
0473.905 (0) Table wp_fluentform_logs: Rows added in this batch (next record: 10): 10 (uncompressed bytes in this segment=3223) in 0.44 seconds
0474.665 (0) The time we have been running (474.2) is approaching the resumption interval (503) - increasing resumption interval to 505
0474.982 (0) Table wp_fluentform_logs: finishing file(s) (2, 0.8 KB)
0475.458 (0) Table wp_fluentform_submission_meta: Total expected rows (via COUNT): 10
0475.551 (0) Table is relatively small; fetch_rows will thus be: 20 (allow_further_reductions=1, is_first_fetch=1, known_bigger_than_table=1)
0475.682 (0) Table wp_fluentform_submission_meta: Rows added in this batch (next record: 10): 10 (uncompressed bytes in this segment=2243) in 0.51 seconds
0476.341 (0) The time we have been running (476.1) is approaching the resumption interval (505) - increasing resumption interval to 507
0476.714 (0) Table wp_fluentform_submission_meta: finishing file(s) (2, 0.8 KB)
0477.455 (0) Table wp_fluentform_submissions: Total expected rows (via COUNT): 5
0477.593 (0) Table is relatively small; fetch_rows will thus be: 20 (allow_further_reductions=1, is_first_fetch=1, known_bigger_than_table=1)
0477.712 (0) Table wp_fluentform_submissions: Rows added in this batch (next record: 5): 5 (uncompressed bytes in this segment=3958) in 0.51 seconds
0478.211 (0) The time we have been running (477.9) is approaching the resumption interval (507) - increasing resumption interval to 508
0478.836 (0) The time we have been running (478.5) is approaching the resumption interval (508) - increasing resumption interval to 509
0479.087 (0) Table wp_fluentform_submissions: finishing file(s) (2, 1 KB)
0479.321 (0) Table wp_frmt_form_entry: Total expected rows (via COUNT): 2
0479.427 (0) Table is relatively small; fetch_rows will thus be: 20 (allow_further_reductions=1, is_first_fetch=1, known_bigger_than_table=1)
0479.574 (0) Table wp_frmt_form_entry: Rows added in this batch (next record: 5): 2 (uncompressed bytes in this segment=936) in 0.35 seconds
0479.973 (0) The time we have been running (479.8) is approaching the resumption interval (509) - increasing resumption interval to 510
0480.323 (0) The time we have been running (480.2) is approaching the resumption interval (510) - increasing resumption interval to 511
0480.673 (0) Table wp_frmt_form_entry: finishing file(s) (2, 0.5 KB)
0481.271 (0) Table wp_frmt_form_entry_meta: Total expected rows (via COUNT): 10
0481.365 (0) Table is relatively small; fetch_rows will thus be: 20 (allow_further_reductions=1, is_first_fetch=1, known_bigger_than_table=1)
0481.485 (0) Table wp_frmt_form_entry_meta: Rows added in this batch (next record: 24): 10 (uncompressed bytes in this segment=1815) in 0.51 seconds
0482.063 (0) The time we have been running (481.7) is approaching the resumption interval (511) - increasing resumption interval to 512
0482.764 (0) The time we have been running (482.3) is approaching the resumption interval (512) - increasing resumption interval to 513
0482.840 (1) Opened log file at time: Sun, 10 Apr 2022 14:36:43 +0000 on http://localhost/wordpress
0482.986 (1) UpdraftPlus WordPress backup plugin (https://updraftplus.com): 2.22.11.25 WP: 5.9.3 PHP: 8.0.14 (apache2handler, Windows NT FRIDAY 10.0 build 19044 (Windows 10) AMD64) MySQL: 10.4.22-MariaDB (max packet size=1048576) WPLANG: en_US Server: Apache/2.4.52 (Win64) OpenSSL/1.1.1m PHP/8.0.14 safe_mode: 0 max_execution_time: 900 memory_limit: 512M (used: 76.2M | 8M) multisite: N openssl: OpenSSL 1.1.1l  24 Aug 2021 mcrypt: N LANG:  ZipArchive::addFile: Y
0483.058 (0) Table wp_frmt_form_entry_meta: finishing file(s) (2, 0.6 KB)
0483.236 (1) Free space on disk containing Updraft's temporary directory: 600330.1 MB
0483.501 (1) Requesting backup semaphore lock (a12e4c699d73)
0483.717 (0) Table wp_frmt_form_views: Total expected rows (via COUNT): 20
0483.789 (0) Table is relatively small; fetch_rows will thus be: 20 (allow_further_reductions=1, is_first_fetch=1, known_bigger_than_table=1)
0483.789 (1) [Debug] Lock option (updraft_lock_a12e4c699d73, wp_options) was created in the database
0483.883 (1) [Info] Lock (updraft_lock_a12e4c699d73, wp_options) acquired after initialising the database
0483.935 (0) Table wp_frmt_form_views: Rows added in this batch (next record: 20): 20 (uncompressed bytes in this segment=2434) in 0.29 seconds
0483.976 (1) Terminate: check-in exists with activity within the last 30 seconds (time_mod=1649601404.2, time_now=1649601403.4, diff=-1, size=n/a). This likely means that another UpdraftPlus run is at work; so we will exit.
0484.059 (1) A new resumption will be scheduled to prevent the job ending
0484.130 (1) Rescheduling resumption 2: moving to 632 seconds from now (1649602036)
0484.420 (0) The time we have been running (484) is approaching the resumption interval (513) - increasing resumption interval to 515
0484.612 (1) To decrease the likelihood of overlaps, increasing resumption interval to: 512 + 120 = 632
0484.793 (0) Table wp_frmt_form_views: finishing file(s) (2, 0.7 KB)
0485.365 (0) Table wp_fsmpt_email_logs: Total expected rows (via COUNT): 1
0485.504 (0) Table is relatively small; fetch_rows will thus be: 20 (allow_further_reductions=1, is_first_fetch=1, known_bigger_than_table=1)
0485.647 (0) Table wp_fsmpt_email_logs: Rows added in this batch (next record: 6): 1 (uncompressed bytes in this segment=2417) in 0.51 seconds
0486.499 (0) The time we have been running (486) is approaching the resumption interval (515) - increasing resumption interval to 516
0487.027 (0) The time we have been running (486.7) is approaching the resumption interval (516) - increasing resumption interval to 517
0487.232 (0) Table wp_fsmpt_email_logs: finishing file(s) (2, 1 KB)
0487.683 (0) Table wp_nextend2_image_storage: Total expected rows (via COUNT): 0
0487.836 (0) Table wp_nextend2_image_storage: Rows added in this batch (next record: -1): 0 (uncompressed bytes in this segment=668) in 0.30 seconds
0488.317 (0) The time we have been running (488) is approaching the resumption interval (517) - increasing resumption interval to 518
0488.959 (0) The time we have been running (488.5) is approaching the resumption interval (518) - increasing resumption interval to 519
0489.160 (0) Table wp_nextend2_image_storage: finishing file(s) (2, 0.4 KB)
0489.631 (0) Table wp_nextend2_section_storage: Total expected rows (via COUNT): 2
0489.689 (0) Table is relatively small; fetch_rows will thus be: 20 (allow_further_reductions=1, is_first_fetch=1, known_bigger_than_table=1)
0489.878 (0) Table wp_nextend2_section_storage: Rows added in this batch (next record: 10001): 2 (uncompressed bytes in this segment=1275) in 0.48 seconds
0490.294 (0) The time we have been running (490) is approaching the resumption interval (519) - increasing resumption interval to 520
0490.814 (0) The time we have been running (490.5) is approaching the resumption interval (520) - increasing resumption interval to 521
0490.932 (0) Table wp_nextend2_section_storage: finishing file(s) (2, 0.6 KB)
0491.117 (0) Table wp_nextend2_smartslider3_generators: Total expected rows (via COUNT): 0
0491.218 (0) Table wp_nextend2_smartslider3_generators: Rows added in this batch (next record: -1): 0 (uncompressed bytes in this segment=702) in 0.15 seconds
0491.527 (0) The time we have been running (491.3) is approaching the resumption interval (521) - increasing resumption interval to 522
0491.740 (0) Table wp_nextend2_smartslider3_generators: finishing file(s) (2, 0.4 KB)
0491.989 (0) Table wp_nextend2_smartslider3_sliders: Total expected rows (via COUNT): 2
0492.040 (0) Table is relatively small; fetch_rows will thus be: 20 (allow_further_reductions=1, is_first_fetch=1, known_bigger_than_table=1)
0492.138 (0) Table wp_nextend2_smartslider3_sliders: Rows added in this batch (next record: 2): 2 (uncompressed bytes in this segment=20920) in 0.22 seconds
0492.446 (0) The time we have been running (492.2) is approaching the resumption interval (522) - increasing resumption interval to 523
0492.827 (0) Table wp_nextend2_smartslider3_sliders: finishing file(s) (2, 3.9 KB)
0493.332 (0) Table wp_nextend2_smartslider3_sliders_xref: Total expected rows (approximate): 0
0493.510 (0) Table wp_nextend2_smartslider3_sliders_xref: Rows added in this batch (next record: 1000): 1 (uncompressed bytes in this segment=726) in 0.21 seconds
0493.961 (0) The time we have been running (493.6) is approaching the resumption interval (523) - increasing resumption interval to 524
0494.247 (0) The time we have been running (494.1) is approaching the resumption interval (524) - increasing resumption interval to 525
0494.365 (0) Table wp_nextend2_smartslider3_sliders_xref: finishing file(s) (2, 0.4 KB)
0494.656 (0) Table wp_nextend2_smartslider3_slides: Total expected rows (via COUNT): 3
0494.702 (0) Table is relatively small; fetch_rows will thus be: 20 (allow_further_reductions=1, is_first_fetch=1, known_bigger_than_table=1)
0494.798 (0) Table wp_nextend2_smartslider3_slides: Rows added in this batch (next record: 3): 3 (uncompressed bytes in this segment=31494) in 0.30 seconds
0495.054 (0) Table wp_nextend2_smartslider3_slides: finishing file(s) (2, 2.9 KB)
0495.630 (0) Table wp_wpforms_tasks_meta: Total expected rows (via COUNT): 4
0495.734 (0) Table is relatively small; fetch_rows will thus be: 20 (allow_further_reductions=1, is_first_fetch=1, known_bigger_than_table=1)
0495.796 (0) Table wp_wpforms_tasks_meta: Rows added in this batch (next record: 4): 4 (uncompressed bytes in this segment=977) in 0.29 seconds
0496.129 (0) The time we have been running (495.9) is approaching the resumption interval (525) - increasing resumption interval to 526
0496.490 (0) The time we have been running (496.3) is approaching the resumption interval (526) - increasing resumption interval to 527
0496.672 (0) Table wp_wpforms_tasks_meta: finishing file(s) (2, 0.5 KB)
0496.792 (0) PHP event: code E_WARNING: filemtime(): stat failed for C:\xampp\htdocs\Practice\wordpress/wp-content/updraft/backup_2022-04-10-1958_KYREN_a12e4c699d73-db.gz (line 1836, C:\xampp\htdocs\Practice\wordpress\wp-content\plugins\updraftplus\backup.php)
0496.869 (0) backup_2022-04-10-1958_KYREN_a12e4c699d73-db-table-wp_options.table.tmpr4635.gz (1/48/fopen): adding to final database dump
0497.000 (0) backup_2022-04-10-1958_KYREN_a12e4c699d73-db-table-wp_options.table.gz (2/48/fopen): adding to final database dump
0497.082 (0) backup_2022-04-10-1958_KYREN_a12e4c699d73-db-table-wp_users.table.tmpr2.gz (3/48/fopen): adding to final database dump
0497.151 (0) backup_2022-04-10-1958_KYREN_a12e4c699d73-db-table-wp_users.table.gz (4/48/fopen): adding to final database dump
0497.195 (0) backup_2022-04-10-1958_KYREN_a12e4c699d73-db-table-wp_usermeta.table.tmpr32.gz (5/48/fopen): adding to final database dump
0497.254 (0) backup_2022-04-10-1958_KYREN_a12e4c699d73-db-table-wp_usermeta.table.gz (6/48/fopen): adding to final database dump
0497.323 (0) backup_2022-04-10-1958_KYREN_a12e4c699d73-db-table-wp_commentmeta.table.tmpr0.gz (7/48/fopen): adding to final database dump
0497.409 (0) backup_2022-04-10-1958_KYREN_a12e4c699d73-db-table-wp_commentmeta.table.gz (8/48/fopen): adding to final database dump
0497.475 (0) backup_2022-04-10-1958_KYREN_a12e4c699d73-db-table-wp_comments.table.tmpr0.gz (9/48/fopen): adding to final database dump
0497.557 (0) backup_2022-04-10-1958_KYREN_a12e4c699d73-db-table-wp_comments.table.gz (10/48/fopen): adding to final database dump
0497.811 (0) backup_2022-04-10-1958_KYREN_a12e4c699d73-db-table-wp_links.table.tmpr0.gz (11/48/fopen): adding to final database dump
0497.960 (0) backup_2022-04-10-1958_KYREN_a12e4c699d73-db-table-wp_links.table.gz (12/48/fopen): adding to final database dump
0498.064 (0) backup_2022-04-10-1958_KYREN_a12e4c699d73-db-table-wp_postmeta.table.tmpr3583.gz (13/48/fopen): adding to final database dump
0498.207 (0) backup_2022-04-10-1958_KYREN_a12e4c699d73-db-table-wp_postmeta.table.gz (14/48/fopen): adding to final database dump
0498.317 (0) backup_2022-04-10-1958_KYREN_a12e4c699d73-db-table-wp_posts.table.tmpr966.gz (15/48/fopen): adding to final database dump
0498.369 (0) backup_2022-04-10-1958_KYREN_a12e4c699d73-db-table-wp_posts.table.gz (16/48/fopen): adding to final database dump
0498.444 (0) backup_2022-04-10-1958_KYREN_a12e4c699d73-db-table-wp_term_relationships.table.tmpr100001.gz (17/48/fopen): adding to final database dump
0498.491 (0) backup_2022-04-10-1958_KYREN_a12e4c699d73-db-table-wp_term_relationships.table.gz (18/48/fopen): adding to final database dump
0498.562 (0) backup_2022-04-10-1958_KYREN_a12e4c699d73-db-table-wp_term_taxonomy.table.tmpr11.gz (19/48/fopen): adding to final database dump
0498.633 (0) backup_2022-04-10-1958_KYREN_a12e4c699d73-db-table-wp_term_taxonomy.table.gz (20/48/fopen): adding to final database dump
0498.810 (0) backup_2022-04-10-1958_KYREN_a12e4c699d73-db-table-wp_termmeta.table.tmpr6.gz (21/48/fopen): adding to final database dump
0499.024 (0) backup_2022-04-10-1958_KYREN_a12e4c699d73-db-table-wp_termmeta.table.gz (22/48/fopen): adding to final database dump
0499.274 (0) backup_2022-04-10-1958_KYREN_a12e4c699d73-db-table-wp_terms.table.tmpr11.gz (23/48/fopen): adding to final database dump
0499.333 (0) backup_2022-04-10-1958_KYREN_a12e4c699d73-db-table-wp_terms.table.gz (24/48/fopen): adding to final database dump
0499.387 (0) backup_2022-04-10-1958_KYREN_a12e4c699d73-db-table-wp_actionscheduler_actions.table.tmpr251.gz (25/48/fopen): adding to final database dump
0499.467 (0) backup_2022-04-10-1958_KYREN_a12e4c699d73-db-table-wp_actionscheduler_actions.table.gz (26/48/fopen): adding to final database dump
0499.539 (0) backup_2022-04-10-1958_KYREN_a12e4c699d73-db-table-wp_actionscheduler_claims.table.tmpr0.gz (27/48/fopen): adding to final database dump
0499.590 (0) backup_2022-04-10-1958_KYREN_a12e4c699d73-db-table-wp_actionscheduler_claims.table.gz (28/48/fopen): adding to final database dump
0499.645 (0) backup_2022-04-10-1958_KYREN_a12e4c699d73-db-table-wp_actionscheduler_groups.table.tmpr4.gz (29/48/fopen): adding to final database dump
0499.692 (0) backup_2022-04-10-1958_KYREN_a12e4c699d73-db-table-wp_actionscheduler_groups.table.gz (30/48/fopen): adding to final database dump
0499.787 (0) backup_2022-04-10-1958_KYREN_a12e4c699d73-db-table-wp_actionscheduler_logs.table.tmpr618.gz (31/48/fopen): adding to final database dump
0499.845 (0) backup_2022-04-10-1958_KYREN_a12e4c699d73-db-table-wp_actionscheduler_logs.table.gz (32/48/fopen): adding to final database dump
0499.924 (0) backup_2022-04-10-1958_KYREN_a12e4c699d73-db-table-wp_aioseo_cache.table.tmpr0.gz (33/48/fopen): adding to final database dump
0499.994 (0) backup_2022-04-10-1958_KYREN_a12e4c699d73-db-table-wp_aioseo_cache.table.gz (34/48/fopen): adding to final database dump
0500.171 (0) backup_2022-04-10-1958_KYREN_a12e4c699d73-db-table-wp_aioseo_notifications.table.tmpr0.gz (35/48/fopen): adding to final database dump
0500.305 (0) backup_2022-04-10-1958_KYREN_a12e4c699d73-db-table-wp_aioseo_notifications.table.gz (36/48/fopen): adding to final database dump
0500.405 (0) backup_2022-04-10-1958_KYREN_a12e4c699d73-db-table-wp_aioseo_posts.table.tmpr31.gz (37/48/fopen): adding to final database dump
0500.507 (0) backup_2022-04-10-1958_KYREN_a12e4c699d73-db-table-wp_aioseo_posts.table.gz (38/48/fopen): adding to final database dump
0500.579 (0) backup_2022-04-10-1958_KYREN_a12e4c699d73-db-table-wp_aiowps_debug_log.table.tmpr0.gz (39/48/fopen): adding to final database dump
0500.623 (0) backup_2022-04-10-1958_KYREN_a12e4c699d73-db-table-wp_aiowps_debug_log.table.gz (40/48/fopen): adding to final database dump
0500.680 (0) backup_2022-04-10-1958_KYREN_a12e4c699d73-db-table-wp_aiowps_events.table.tmpr0.gz (41/48/fopen): adding to final database dump
0500.751 (0) backup_2022-04-10-1958_KYREN_a12e4c699d73-db-table-wp_aiowps_events.table.gz (42/48/fopen): adding to final database dump
0500.817 (0) backup_2022-04-10-1958_KYREN_a12e4c699d73-db-table-wp_aiowps_failed_logins.table.tmpr0.gz (43/48/fopen): adding to final database dump
0500.887 (0) backup_2022-04-10-1958_KYREN_a12e4c699d73-db-table-wp_aiowps_failed_logins.table.gz (44/48/fopen): adding to final database dump
0500.946 (0) backup_2022-04-10-1958_KYREN_a12e4c699d73-db-table-wp_aiowps_global_meta.table.tmpr0.gz (45/48/fopen): adding to final database dump
0501.061 (0) backup_2022-04-10-1958_KYREN_a12e4c699d73-db-table-wp_aiowps_global_meta.table.gz (46/48/fopen): adding to final database dump
0501.152 (0) backup_2022-04-10-1958_KYREN_a12e4c699d73-db-table-wp_aiowps_login_activity.table.tmpr5.gz (47/48/fopen): adding to final database dump
0501.224 (0) backup_2022-04-10-1958_KYREN_a12e4c699d73-db-table-wp_aiowps_login_activity.table.gz (48/48/fopen): adding to final database dump
0501.364 (0) backup_2022-04-10-1958_KYREN_a12e4c699d73-db-table-wp_aiowps_login_lockdown.table.tmpr0.gz (49/48/fopen): adding to final database dump
0501.480 (0) backup_2022-04-10-1958_KYREN_a12e4c699d73-db-table-wp_aiowps_login_lockdown.table.gz (50/48/fopen): adding to final database dump
0501.560 (0) backup_2022-04-10-1958_KYREN_a12e4c699d73-db-table-wp_aiowps_permanent_block.table.tmpr0.gz (51/48/fopen): adding to final database dump
0501.629 (0) backup_2022-04-10-1958_KYREN_a12e4c699d73-db-table-wp_aiowps_permanent_block.table.gz (52/48/fopen): adding to final database dump
0501.687 (0) backup_2022-04-10-1958_KYREN_a12e4c699d73-db-table-wp_e_submissions.table.tmpr0.gz (53/48/fopen): adding to final database dump
0501.767 (0) backup_2022-04-10-1958_KYREN_a12e4c699d73-db-table-wp_e_submissions.table.gz (54/48/fopen): adding to final database dump
0501.814 (0) backup_2022-04-10-1958_KYREN_a12e4c699d73-db-table-wp_e_submissions_actions_log.table.tmpr0.gz (55/48/fopen): adding to final database dump
0501.861 (0) backup_2022-04-10-1958_KYREN_a12e4c699d73-db-table-wp_e_submissions_actions_log.table.gz (56/48/fopen): adding to final database dump
0501.930 (0) backup_2022-04-10-1958_KYREN_a12e4c699d73-db-table-wp_e_submissions_values.table.tmpr0.gz (57/48/fopen): adding to final database dump
0501.988 (0) backup_2022-04-10-1958_KYREN_a12e4c699d73-db-table-wp_e_submissions_values.table.gz (58/48/fopen): adding to final database dump
0502.046 (0) backup_2022-04-10-1958_KYREN_a12e4c699d73-db-table-wp_ff_scheduled_actions.table.tmpr0.gz (59/48/fopen): adding to final database dump
0502.184 (0) backup_2022-04-10-1958_KYREN_a12e4c699d73-db-table-wp_ff_scheduled_actions.table.gz (60/48/fopen): adding to final database dump
0502.313 (0) backup_2022-04-10-1958_KYREN_a12e4c699d73-db-table-wp_fluentform_entry_details.table.tmpr21.gz (61/48/fopen): adding to final database dump
0502.432 (0) backup_2022-04-10-1958_KYREN_a12e4c699d73-db-table-wp_fluentform_entry_details.table.gz (62/48/fopen): adding to final database dump
0502.492 (0) backup_2022-04-10-1958_KYREN_a12e4c699d73-db-table-wp_fluentform_form_analytics.table.tmpr3.gz (63/48/fopen): adding to final database dump
0502.550 (0) backup_2022-04-10-1958_KYREN_a12e4c699d73-db-table-wp_fluentform_form_analytics.table.gz (64/48/fopen): adding to final database dump
0502.641 (0) backup_2022-04-10-1958_KYREN_a12e4c699d73-db-table-wp_fluentform_form_meta.table.tmpr17.gz (65/48/fopen): adding to final database dump
0502.700 (0) backup_2022-04-10-1958_KYREN_a12e4c699d73-db-table-wp_fluentform_form_meta.table.gz (66/48/fopen): adding to final database dump
0502.746 (0) backup_2022-04-10-1958_KYREN_a12e4c699d73-db-table-wp_fluentform_forms.table.tmpr4.gz (67/48/fopen): adding to final database dump
0502.783 (0) backup_2022-04-10-1958_KYREN_a12e4c699d73-db-table-wp_fluentform_forms.table.gz (68/48/fopen): adding to final database dump
0502.863 (0) backup_2022-04-10-1958_KYREN_a12e4c699d73-db-table-wp_fluentform_logs.table.tmpr11.gz (69/48/fopen): adding to final database dump
0502.932 (0) backup_2022-04-10-1958_KYREN_a12e4c699d73-db-table-wp_fluentform_logs.table.gz (70/48/fopen): adding to final database dump
0502.989 (0) backup_2022-04-10-1958_KYREN_a12e4c699d73-db-table-wp_fluentform_submission_meta.table.tmpr11.gz (71/48/fopen): adding to final database dump
0503.069 (0) backup_2022-04-10-1958_KYREN_a12e4c699d73-db-table-wp_fluentform_submission_meta.table.gz (72/48/fopen): adding to final database dump
0503.138 (0) backup_2022-04-10-1958_KYREN_a12e4c699d73-db-table-wp_fluentform_submissions.table.tmpr6.gz (73/48/fopen): adding to final database dump
0503.197 (0) backup_2022-04-10-1958_KYREN_a12e4c699d73-db-table-wp_fluentform_submissions.table.gz (74/48/fopen): adding to final database dump
0503.277 (0) backup_2022-04-10-1958_KYREN_a12e4c699d73-db-table-wp_frmt_form_entry.table.tmpr6.gz (75/48/fopen): adding to final database dump
0503.359 (0) backup_2022-04-10-1958_KYREN_a12e4c699d73-db-table-wp_frmt_form_entry.table.gz (76/48/fopen): adding to final database dump
0503.503 (0) backup_2022-04-10-1958_KYREN_a12e4c699d73-db-table-wp_frmt_form_entry_meta.table.tmpr25.gz (77/48/fopen): adding to final database dump
0503.565 (0) backup_2022-04-10-1958_KYREN_a12e4c699d73-db-table-wp_frmt_form_entry_meta.table.gz (78/48/fopen): adding to final database dump
0503.646 (0) backup_2022-04-10-1958_KYREN_a12e4c699d73-db-table-wp_frmt_form_views.table.tmpr21.gz (79/48/fopen): adding to final database dump
0503.705 (0) backup_2022-04-10-1958_KYREN_a12e4c699d73-db-table-wp_frmt_form_views.table.gz (80/48/fopen): adding to final database dump
0503.853 (0) backup_2022-04-10-1958_KYREN_a12e4c699d73-db-table-wp_fsmpt_email_logs.table.tmpr7.gz (81/48/fopen): adding to final database dump
0503.912 (0) backup_2022-04-10-1958_KYREN_a12e4c699d73-db-table-wp_fsmpt_email_logs.table.gz (82/48/fopen): adding to final database dump
0503.980 (0) backup_2022-04-10-1958_KYREN_a12e4c699d73-db-table-wp_nextend2_image_storage.table.tmpr0.gz (83/48/fopen): adding to final database dump
0504.060 (0) backup_2022-04-10-1958_KYREN_a12e4c699d73-db-table-wp_nextend2_image_storage.table.gz (84/48/fopen): adding to final database dump
0504.130 (0) backup_2022-04-10-1958_KYREN_a12e4c699d73-db-table-wp_nextend2_section_storage.table.tmpr10002.gz (85/48/fopen): adding to final database dump
0504.201 (0) backup_2022-04-10-1958_KYREN_a12e4c699d73-db-table-wp_nextend2_section_storage.table.gz (86/48/fopen): adding to final database dump
0504.281 (0) backup_2022-04-10-1958_KYREN_a12e4c699d73-db-table-wp_nextend2_smartslider3_generators.table.tmpr0.gz (87/48/fopen): adding to final database dump
0504.328 (0) backup_2022-04-10-1958_KYREN_a12e4c699d73-db-table-wp_nextend2_smartslider3_generators.table.gz (88/48/fopen): adding to final database dump
0504.433 (0) backup_2022-04-10-1958_KYREN_a12e4c699d73-db-table-wp_nextend2_smartslider3_sliders.table.tmpr3.gz (89/48/fopen): adding to final database dump
0504.554 (0) backup_2022-04-10-1958_KYREN_a12e4c699d73-db-table-wp_nextend2_smartslider3_sliders.table.gz (90/48/fopen): adding to final database dump
0504.649 (0) backup_2022-04-10-1958_KYREN_a12e4c699d73-db-table-wp_nextend2_smartslider3_sliders_xref.table.tmpr1001.gz (91/48/fopen): adding to final database dump
0504.718 (0) backup_2022-04-10-1958_KYREN_a12e4c699d73-db-table-wp_nextend2_smartslider3_sliders_xref.table.gz (92/48/fopen): adding to final database dump
0504.777 (0) backup_2022-04-10-1958_KYREN_a12e4c699d73-db-table-wp_nextend2_smartslider3_slides.table.tmpr4.gz (93/48/fopen): adding to final database dump
0504.824 (0) backup_2022-04-10-1958_KYREN_a12e4c699d73-db-table-wp_nextend2_smartslider3_slides.table.gz (94/48/fopen): adding to final database dump
0504.926 (0) backup_2022-04-10-1958_KYREN_a12e4c699d73-db-table-wp_wpforms_tasks_meta.table.tmpr5.gz (95/48/fopen): adding to final database dump
0505.006 (0) backup_2022-04-10-1958_KYREN_a12e4c699d73-db-table-wp_wpforms_tasks_meta.table.gz (96/48/fopen): adding to final database dump
0505.140 (0) backup_2022-04-10-1958_KYREN_a12e4c699d73-db.gz: finished writing out complete database file (1077.2 KB)
0505.440 (0) Total database tables backed up: 48 (backup_2022-04-10-1958_KYREN_a12e4c699d73-db.gz, size: 1103210, sha1: 3d6ca6dfe5c448f60ec86653e53e301f4cde512c, sha256: 0a1ac4f1c7266530a32fa7fa9a67100feee57623eb58f267323113163cc44ce8)
0505.727 (0) backup_2022-04-10-1958_KYREN_a12e4c699d73-plugins.zip: plugins: This file has not yet been successfully uploaded: will queue
0505.784 (0) backup_2022-04-10-1958_KYREN_a12e4c699d73-themes.zip: themes: This file has not yet been successfully uploaded: will queue
0505.875 (0) backup_2022-04-10-1958_KYREN_a12e4c699d73-uploads.zip: uploads: This file has not yet been successfully uploaded: will queue
0505.933 (0) backup_2022-04-10-1958_KYREN_a12e4c699d73-others.zip: others: This file has not yet been successfully uploaded: will queue
0505.980 (0) backup_2022-04-10-1958_KYREN_a12e4c699d73-db.gz: db: This file has not yet been successfully uploaded: will queue
0506.026 (0) Saving backup history. Total backup size: 106.6 MB
0506.176 (0) Requesting upload of the files that have not yet been successfully uploaded (5)
0506.372 (0) Cloud backup selection (1/1): none with instance (1/1) (last)
0506.407 (0) No remote despatch: user chose no remote backup service
0506.535 (0) Recording as successfully uploaded: backup_2022-04-10-1958_KYREN_a12e4c699d73-plugins.zip
0506.811 (0) Deleting zip manifest (backup_2022-04-10-1958_KYREN_a12e4c699d73-plugins.zip.list.tmp)
0507.025 (0) Recording as successfully uploaded: backup_2022-04-10-1958_KYREN_a12e4c699d73-themes.zip
0507.256 (0) Deleting zip manifest (backup_2022-04-10-1958_KYREN_a12e4c699d73-themes.zip.list.tmp)
0507.336 (0) Recording as successfully uploaded: backup_2022-04-10-1958_KYREN_a12e4c699d73-uploads.zip
0507.500 (0) Deleting zip manifest (backup_2022-04-10-1958_KYREN_a12e4c699d73-uploads.zip.list.tmp)
0507.533 (0) Recording as successfully uploaded: backup_2022-04-10-1958_KYREN_a12e4c699d73-others.zip
0507.685 (0) Deleting zip manifest (backup_2022-04-10-1958_KYREN_a12e4c699d73-others.zip.list.tmp)
0507.788 (0) Recording as successfully uploaded: backup_2022-04-10-1958_KYREN_a12e4c699d73-db.gz
0508.014 (0) Retain: beginning examination of existing backup sets; user setting: retain_files=2, retain_db=2
0508.087 (0) Number of backup sets in history: 2; groups (db): 1
0508.137 (0) Examining (for databases) backup set with group_id=0, nonce=5779c27e8620, datestamp=1649601131 (Apr 10 2022 14:32:11)
0508.204 (0) This backup set remains non-empty (f=1/d=1); will retain in history
0508.252 (0) Examining (for databases) backup set with group_id=0, nonce=a12e4c699d73, datestamp=1649600920 (Apr 10 2022 14:28:40)
0508.252 (0) This backup set is the backup set just made, so will not be deleted.
0508.252 (0) Number of backup sets in history: 2; groups (files): 1
0508.315 (0) Examining (for files) backup set with nonce=5779c27e8620, datestamp=1649601131 (Apr 10 2022 14:32:11)
0508.315 (0) This backup set remains non-empty (f=1/d=1); will retain in history
0508.368 (0) Examining (for files) backup set with nonce=a12e4c699d73, datestamp=1649600920 (Apr 10 2022 14:28:40)
0508.368 (0) This backup set is the backup set just made, so will not be deleted.
0508.415 (0) This backup set is the backup set just made, so will not be deleted.
0508.473 (0) This backup set is the backup set just made, so will not be deleted.
0508.474 (0) This backup set is the backup set just made, so will not be deleted.
0508.474 (0) This backup set remains non-empty (f=1/d=1); will retain in history
0508.556 (0) Retain: saving new backup history (sets now: 2) and finishing retain operation
0508.792 (0) Resume backup (a12e4c699d73, 0): finish run
0509.131 (0) Decremented the semaphore (fd) by 1
0509.191 (0) Semaphore (fd, wp_options) still locked (0)
0509.258 (0) There were no errors in the uploads, so the 'resume' event (1) is being unscheduled
0509.618 (0) No email will/can be sent - the user has not configured an email address.
0509.722 (0) The backup apparently succeeded and is now complete
